Case 1: 9
Case 2: 9
Case 3: 3
Case 4: 9
Case 5: Too easy
Case 6: 3
Case 7: 4
Case 8: Too easy
Case 9: 9
Case 10: 10
Case 11: 12
Case 12: 6
Case 13: 14
Case 14: 7
Case 15: 9
Case 16: Too difficult
Case 17: Too difficult
Case 18: Too difficult
Case 19: 10
Case 20: Too difficult
Case 21: Too difficult
Case 22: Too difficult
Case 23: Too difficult
Case 24: Too difficult
Case 25: Too difficult
Case 26: Too difficult
Case 27: Too difficult
Case 28: Too difficult
Case 29: Too difficult
Case 30: Too difficult
Case 31: Too difficult
Case 32: Too difficult
Case 33: Too difficult
Case 34: Too difficult
Case 35: Too difficult
Case 36: Too difficult
Case 37: Too difficult
Case 38: Too difficult
Case 39: Too difficult
Case 40: Too difficult
Case 41: Too difficult
Case 42: Too difficult
Case 43: Too difficult
Case 44: Too difficult
Case 45: Too difficult
Case 46: Too difficult
Case 47: 7
Case 48: Too difficult
Case 49: Too difficult
Case 50: Too difficult
